Proyecto_1/prueba_monocicle.vcd
$date
	Thu Apr 11 01:09:40 2024
$end
$version
	Icarus Verilog
$end
$timescale
	1ps
$end
$scope module z_monocicle_tb $end
$var reg 1 ! CLK $end
$var reg 1 " RST $end
$scope module monocicle_prueba $end
$var wire 1 ! CLK $end
$var wire 1 " RST $end
$var wire 64 # regtomux1 [63:0] $end
$var wire 64 $ regtoALU [63:0] $end
$var wire 64 % mux3toreg [63:0] $end
$var wire 64 & mux2toPC [63:0] $end
$var wire 64 ' mux1toALU [63:0] $end
$var wire 32 ( instruction [31:0] $end
$var wire 64 ) immgentomux1 [63:0] $end
$var wire 1 * decotoreg $end
$var wire 1 + decotomux3 $end
$var wire 1 , decotomux1 $end
$var wire 1 - decotodatamem $end
$var wire 1 . decotoAND $end
$var wire 4 / decotoALU [3:0] $end
$var wire 64 0 data_memtomux3 [63:0] $end
$var wire 64 1 adder2tomux2 [63:0] $end
$var wire 64 2 adder1tomux2 [63:0] $end
$var wire 64 3 PCtoInst_mem [63:0] $end
$var wire 1 4 ANDtomux2 $end
$var wire 64 5 ALUtodata_mem [63:0] $end
$var wire 1 6 ALUtoAND $end
$scope module ALU_mono $end
$var wire 64 7 B [63:0] $end
$var wire 4 8 ALU_operation [3:0] $end
$var wire 64 9 A [63:0] $end
$var reg 64 : ALU_result [63:0] $end
$var reg 1 6 zero $end
$upscope $end
$scope module PC_mono $end
$var wire 1 ! clk $end
$var wire 1 " rst $end
$var wire 64 ; IN [63:0] $end
$var reg 64 < OUT [63:0] $end
$upscope $end
$scope module adder1 $end
$var wire 64 = A [63:0] $end
$var wire 64 > B [63:0] $end
$var wire 64 ? Q [63:0] $end
$upscope $end
$scope module adder2 $end
$var wire 64 @ A [63:0] $end
$var wire 64 A Q [63:0] $end
$var wire 64 B B [63:0] $end
$upscope $end
$scope module control_mono $end
$var wire 11 C instruction [10:0] $end
$var parameter 7 D arit_op $end
$var parameter 7 E beq_op $end
$var parameter 7 F lw_op $end
$var parameter 7 G sw_op $end
$var reg 4 H ALUOp [3:0] $end
$var reg 1 , ALUSrc $end
$var reg 1 . Branch $end
$var reg 1 - MemWrite $end
$var reg 1 + MemtoReg $end
$var reg 1 * RegWrite $end
$upscope $end
$scope module data_mono $end
$var wire 64 I address [63:0] $end
$var wire 1 ! clk $end
$var wire 1 " rst $end
$var wire 1 - wrt_en $end
$var wire 64 J write_data [63:0] $end
$var reg 64 K read_data [63:0] $end
$var integer 32 L i [31:0] $end
$upscope $end
$scope module gate $end
$var wire 1 . a $end
$var wire 1 6 b $end
$var wire 1 4 q $end
$upscope $end
$scope module inst_mono $end
$var wire 1 ! clk $end
$var wire 64 M read_adr [63:0] $end
$var wire 1 " rst $end
$var parameter 32 N adr_in $end
$var parameter 32 O depth $end
$var parameter 32 P width $end
$var reg 32 Q instruction [31:0] $end
$var integer 32 R i [31:0] $end
$upscope $end
$scope module mux1 $end
$var wire 1 , SEL $end
$var wire 64 S IN1 [63:0] $end
$var wire 64 T IN0 [63:0] $end
$var reg 64 U OUT [63:0] $end
$upscope $end
$scope module mux2 $end
$var wire 64 V IN0 [63:0] $end
$var wire 64 W IN1 [63:0] $end
$var wire 1 4 SEL $end
$var reg 64 X OUT [63:0] $end
$upscope $end
$scope module mux3 $end
$var wire 64 Y IN0 [63:0] $end
$var wire 64 Z IN1 [63:0] $end
$var wire 1 + SEL $end
$var reg 64 [ OUT [63:0] $end
$upscope $end
$scope module register_mono $end
$var wire 5 \ adr_reg1 [4:0] $end
$var wire 5 ] adr_reg2 [4:0] $end
$var wire 5 ^ adr_wr_reg [4:0] $end
$var wire 1 ! clk $end
$var wire 1 * regwrite $end
$var wire 1 " rst $end
$var wire 64 _ wr_data [63:0] $end
$var wire 64 ` reg_data2 [63:0] $end
$var wire 64 a reg_data1 [63:0] $end
$var parameter 32 b depth $end
$var parameter 32 c width $end
$scope begin $ivl_for_loop0 $end
$var integer 32 d i [31:0] $end
$upscope $end
$upscope $end
$scope module signextend_mono $end
$var wire 32 e IN [31:0] $end
$var reg 64 f OUT [63:0] $end
$upscope $end
$upscope $end
$scope begin $ivl_for_loop1 $end
$var integer 32 g i [31:0] $end
$upscope $end
$scope task mostrar_data_mem $end
$scope begin $ivl_for_loop4 $end
$upscope $end
$upscope $end
$scope task mostrar_inst_mem $end
$scope begin $ivl_for_loop2 $end
$upscope $end
$upscope $end
$scope task mostrar_regs $end
$scope begin $ivl_for_loop3 $end
$upscope $end
$upscope $end
$upscope $end
$enddefinitions $end
$comment Show the parameter values. $end
$dumpall
b1000000 c
b100000 b
b100000 P
b1010000 O
b1000000 N
b100011 G
b11 F
b1100011 E
b110011 D
$end
#0
$dumpvars
bx g
bx f
bx e
bx d
bx a
bx `
bx _
bx ^
bx ]
bx \
bx [
bx Z
bx Y
bx X
bx W
bx V
bx U
bx T
bx S
bx R
bx Q
bx M
bx L
bx K
bx J
bx I
bx H
bx C
bx B
bx A
bx @
bx ?
b1 >
bx =
bx <
bx ;
bx :
bx 9
bx 8
bx 7
x6
bx 5
x4
bx 3
bx 2
bx 1
bx 0
bx /
x.
x-
x,
x+
x*
bx )
bx (
bx '
bx &
bx %
bx $
bx #
0"
0!
$end
#1000
b0xxxxxxxx %
b0xxxxxxxx [
b0xxxxxxxx _
b0xxxxxxxx 0
b0xxxxxxxx K
b0xxxxxxxx Z
04
06
b1111111111111111111111111111111111111111111111111111111111111111 5
b1111111111111111111111111111111111111111111111111111111111111111 :
b1111111111111111111111111111111111111111111111111111111111111111 I
b1111111111111111111111111111111111111111111111111111111111111111 Y
b1 &
b1 ;
b1 X
b1111111111111111111111111111111111111111111111111111111111111111 '
b1111111111111111111111111111111111111111111111111111111111111111 7
b1111111111111111111111111111111111111111111111111111111111111111 U
b1111 /
b1111 8
b1111 H
0.
1+
1-
1,
1*
b0 #
b0 J
b0 T
b0 `
b0 $
b0 9
b0 a
b1111111111111111111111111111111111111111111111111111111111111111 1
b1111111111111111111111111111111111111111111111111111111111111111 A
b1111111111111111111111111111111111111111111111111111111111111111 W
b1111111111111111111111111111111111111111111111111111111111111111 )
b1111111111111111111111111111111111111111111111111111111111111111 B
b1111111111111111111111111111111111111111111111111111111111111111 S
b1111111111111111111111111111111111111111111111111111111111111111 f
b0 C
b0 ^
b0 ]
b0 \
b0 (
b0 Q
b0 e
1"
b100000 d
b1000000 L
b1010000 R
b1 2
b1 ?
b1 V
b0 3
b0 <
b0 =
b0 @
b0 M
1!
#2000
b100000 5
b100000 :
b100000 I
b100000 Y
b100000 '
b100000 7
b100000 U
b10 /
b10 8
b10 H
0-
b100000 1
b100000 A
b100000 W
b100000 )
b100000 B
b100000 S
b100000 f
b100000011 C
b101 ^
b1 %
b1 [
b1 _
b10000000000010001010000011 (
b10000000000010001010000011 Q
b10000000000010001010000011 e
b1 0
b1 K
b1 Z
b0 g
0!
#3000
b1 #
b1 J
b1 T
b1 `
b11010000000000000000000000000000000000000000000000000000000000 0
b11010000000000000000000000000000000000000000000000000000000000 K
b11010000000000000000000000000000000000000000000000000000000000 Z
06
b1 5
b1 :
b1 I
b1 Y
b1 %
b1 [
b1 _
b1 '
b1 7
b1 U
0+
0,
b1111111111111111111111111111111111111111111111111111111111111111 )
b1111111111111111111111111111111111111111111111111111111111111111 B
b1111111111111111111111111111111111111111111111111111111111111111 S
b1111111111111111111111111111111111111111111111111111111111111111 f
b110011 C
b1 ^
b101 ]
b10 &
b10 ;
b10 X
b10100000000000010110011 (
b10100000000000010110011 Q
b10100000000000010110011 e
b10 2
b10 ?
b10 V
b0 1
b0 A
b0 W
b1 3
b1 <
b1 =
b1 @
b1 M
1!
#4000
0!
b1 g
#5000
b110100000000000000000000000000000000000000000000000000 0
b110100000000000000000000000000000000000000000000000000 K
b110100000000000000000000000000000000000000000000000000 Z
b10 %
b10 [
b10 _
b10 5
b10 :
b10 I
b10 Y
b1 $
b1 9
b1 a
b10 ^
b1 \
b11 &
b11 ;
b11 X
b10100001000000100110011 (
b10100001000000100110011 Q
b10100001000000100110011 e
b11 2
b11 ?
b11 V
b1 1
b1 A
b1 W
b10 3
b10 <
b10 =
b10 @
b10 M
1!
#6000
0!
b10 g
#7000
b1101000000000000000000000000000000000000000000 0
b1101000000000000000000000000000000000000000000 K
b1101000000000000000000000000000000000000000000 Z
b11 %
b11 [
b11 _
b11 5
b11 :
b11 I
b11 Y
b10 $
b10 9
b10 a
b1 ^
b1 ]
b10 \
b100 &
b100 ;
b100 X
b100010000000010110011 (
b100010000000010110011 Q
b100010000000010110011 e
b100 2
b100 ?
b100 V
b10 1
b10 A
b10 W
b11 3
b11 <
b11 =
b11 @
b11 M
1!
#8000
0!
b11 g
#9000
b110100000000000000000000000000 0
b110100000000000000000000000000 K
b110100000000000000000000000000 Z
b101 %
b101 [
b101 _
b10 '
b10 7
b10 U
b101 5
b101 :
b101 I
b101 Y
b10 #
b10 J
b10 T
b10 `
b11 $
b11 9
b11 a
b10 ^
b10 ]
b1 \
b101 &
b101 ;
b101 X
b1000001000000100110011 (
b1000001000000100110011 Q
b1000001000000100110011 e
b101 2
b101 ?
b101 V
b11 1
b11 A
b11 W
b100 3
b100 <
b100 =
b100 @
b100 M
1!
#10000
0!
b100 g
#11000
b110100 0
b110100 K
b110100 Z
b1000 %
b1000 [
b1000 _
b11 '
b11 7
b11 U
b1000 5
b1000 :
b1000 I
b1000 Y
b11 #
b11 J
b11 T
b11 `
b101 $
b101 9
b101 a
b1 ^
b1 ]
b10 \
b110 &
b110 ;
b110 X
b100010000000010110011 (
b100010000000010110011 Q
b100010000000010110011 e
b110 2
b110 ?
b110 V
b100 1
b100 A
b100 W
b101 3
b101 <
b101 =
b101 @
b101 M
1!
#12000
0!
b101 g
#13000
b100101100000000000000000000000000 0
b100101100000000000000000000000000 K
b100101100000000000000000000000000 Z
b1101 %
b1101 [
b1101 _
b101 '
b101 7
b101 U
b1101 5
b1101 :
b1101 I
b1101 Y
b101 #
b101 J
b101 T
b101 `
b1000 $
b1000 9
b1000 a
b10 ^
b10 ]
b1 \
b111 &
b111 ;
b111 X
b1000001000000100110011 (
b1000001000000100110011 Q
b1000001000000100110011 e
b111 2
b111 ?
b111 V
b101 1
b101 A
b101 W
b110 3
b110 <
b110 =
b110 @
b110 M
1!
#14000
0!
b110 g
#15000
b1001110001000000000000000000000000 0
b1001110001000000000000000000000000 K
b1001110001000000000000000000000000 Z
b10101 %
b10101 [
b10101 _
b1000 '
b1000 7
b1000 U
b10101 5
b10101 :
b10101 I
b10101 Y
b1000 #
b1000 J
b1000 T
b1000 `
b1101 $
b1101 9
b1101 a
b1 ^
b1 ]
b10 \
b1000 &
b1000 ;
b1000 X
b100010000000010110011 (
b100010000000010110011 Q
b100010000000010110011 e
b1000 2
b1000 ?
b1000 V
b110 1
b110 A
b110 W
b111 3
b111 <
b111 =
b111 @
b111 M
1!
#16000
0!
b111 g
#17000
b10000000000000000000000000000000000000000000000000000 0
b10000000000000000000000000000000000000000000000000000 K
b10000000000000000000000000000000000000000000000000000 Z
b100010 %
b100010 [
b100010 _
b1101 '
b1101 7
b1101 U
b100010 5
b100010 :
b100010 I
b100010 Y
b1101 #
b1101 J
b1101 T
b1101 `
b10101 $
b10101 9
b10101 a
b10 ^
b10 ]
b1 \
b1001 &
b1001 ;
b1001 X
b1000001000000100110011 (
b1000001000000100110011 Q
b1000001000000100110011 e
b1001 2
b1001 ?
b1001 V
b111 1
b111 A
b111 W
b1000 3
b1000 <
b1000 =
b1000 @
b1000 M
1!
#18000
0!
b1000 g
#19000
b0 0
b0 K
b0 Z
b110111 %
b110111 [
b110111 _
b10101 '
b10101 7
b10101 U
b110111 5
b110111 :
b110111 I
b110111 Y
b10101 #
b10101 J
b10101 T
b10101 `
b100010 $
b100010 9
b100010 a
b1 ^
b1 ]
b10 \
b1010 &
b1010 ;
b1010 X
b100010000000010110011 (
b100010000000010110011 Q
b100010000000010110011 e
b1010 2
b1010 ?
b1010 V
b1000 1
b1000 A
b1000 W
b1001 3
b1001 <
b1001 =
b1001 @
b1001 M
1!
#20000
0!
b1001 g
#21000
bx 0
bx K
bx Z
b1011001 %
b1011001 [
b1011001 _
b100010 '
b100010 7
b100010 U
b1011001 5
b1011001 :
b1011001 I
b1011001 Y
b100010 #
b100010 J
b100010 T
b100010 `
b110111 $
b110111 9
b110111 a
b10 ^
b10 ]
b1 \
b1011 &
b1011 ;
b1011 X
b1000001000000100110011 (
b1000001000000100110011 Q
b1000001000000100110011 e
b1011 2
b1011 ?
b1011 V
b1001 1
b1001 A
b1001 W
b1010 3
b1010 <
b1010 =
b1010 @
b1010 M
1!
#22000
0!
b1010 g
#23000
b10010000 %
b10010000 [
b10010000 _
b110111 '
b110111 7
b110111 U
b10010000 5
b10010000 :
b10010000 I
b10010000 Y
b110111 #
b110111 J
b110111 T
b110111 `
b1011001 $
b1011001 9
b1011001 a
b1 ^
b1 ]
b10 \
b1100 &
b1100 ;
b1100 X
b100010000000010110011 (
b100010000000010110011 Q
b100010000000010110011 e
b1100 2
b1100 ?
b1100 V
b1010 1
b1010 A
b1010 W
b1011 3
b1011 <
b1011 =
b1011 @
b1011 M
1!
#24000
0!
b1011 g
#25000
b11101001 %
b11101001 [
b11101001 _
b1011001 '
b1011001 7
b1011001 U
b11101001 5
b11101001 :
b11101001 I
b11101001 Y
b1011001 #
b1011001 J
b1011001 T
b1011001 `
b10010000 $
b10010000 9
b10010000 a
b10 ^
b10 ]
b1 \
b1101 &
b1101 ;
b1101 X
b1000001000000100110011 (
b1000001000000100110011 Q
b1000001000000100110011 e
b1101 2
b1101 ?
b1101 V
b1011 1
b1011 A
b1011 W
b1100 3
b1100 <
b1100 =
b1100 @
b1100 M
1!
#26000
0!
b1100 g
#27000
b101111001 %
b101111001 [
b101111001 _
b10010000 '
b10010000 7
b10010000 U
b101111001 5
b101111001 :
b101111001 I
b101111001 Y
b10010000 #
b10010000 J
b10010000 T
b10010000 `
b11101001 $
b11101001 9
b11101001 a
b1 ^
b1 ]
b10 \
b1110 &
b1110 ;
b1110 X
b100010000000010110011 (
b100010000000010110011 Q
b100010000000010110011 e
b1110 2
b1110 ?
b1110 V
b1100 1
b1100 A
b1100 W
b1101 3
b1101 <
b1101 =
b1101 @
b1101 M
1!
#28000
0!
b1101 g
#29000
b1001100010 %
b1001100010 [
b1001100010 _
b11101001 '
b11101001 7
b11101001 U
b1001100010 5
b1001100010 :
b1001100010 I
b1001100010 Y
b11101001 #
b11101001 J
b11101001 T
b11101001 `
b101111001 $
b101111001 9
b101111001 a
b10 ^
b10 ]
b1 \
b1111 &
b1111 ;
b1111 X
b1000001000000100110011 (
b1000001000000100110011 Q
b1000001000000100110011 e
b1111 2
b1111 ?
b1111 V
b1101 1
b1101 A
b1101 W
b1110 3
b1110 <
b1110 =
b1110 @
b1110 M
1!
#30000
0!
b1110 g
#31000
b1111011011 %
b1111011011 [
b1111011011 _
b101111001 '
b101111001 7
b101111001 U
b1111011011 5
b1111011011 :
b1111011011 I
b1111011011 Y
b101111001 #
b101111001 J
b101111001 T
b101111001 `
b1001100010 $
b1001100010 9
b1001100010 a
b1 ^
b1 ]
b10 \
b10000 &
b10000 ;
b10000 X
b100010000000010110011 (
b100010000000010110011 Q
b100010000000010110011 e
b10000 2
b10000 ?
b10000 V
b1110 1
b1110 A
b1110 W
b1111 3
b1111 <
b1111 =
b1111 @
b1111 M
1!
#32000
0!
b1111 g
#33000
b11000111101 %
b11000111101 [
b11000111101 _
b1001100010 '
b1001100010 7
b1001100010 U
b11000111101 5
b11000111101 :
b11000111101 I
b11000111101 Y
b1001100010 #
b1001100010 J
b1001100010 T
b1001100010 `
b1111011011 $
b1111011011 9
b1111011011 a
b10 ^
b10 ]
b1 \
b10001 &
b10001 ;
b10001 X
b1000001000000100110011 (
b1000001000000100110011 Q
b1000001000000100110011 e
b10001 2
b10001 ?
b10001 V
b1111 1
b1111 A
b1111 W
b10000 3
b10000 <
b10000 =
b10000 @
b10000 M
1!
#34000
0!
b10000 g
#35000
b101000011000 %
b101000011000 [
b101000011000 _
b1111011011 '
b1111011011 7
b1111011011 U
b101000011000 5
b101000011000 :
b101000011000 I
b101000011000 Y
b1111011011 #
b1111011011 J
b1111011011 T
b1111011011 `
b11000111101 $
b11000111101 9
b11000111101 a
b1 ^
b1 ]
b10 \
b10010 &
b10010 ;
b10010 X
b100010000000010110011 (
b100010000000010110011 Q
b100010000000010110011 e
b10010 2
b10010 ?
b10010 V
b10000 1
b10000 A
b10000 W
b10001 3
b10001 <
b10001 =
b10001 @
b10001 M
1!
#36000
0!
b10001 g
#37000
b1000001010101 %
b1000001010101 [
b1000001010101 _
b11000111101 '
b11000111101 7
b11000111101 U
b1000001010101 5
b1000001010101 :
b1000001010101 I
b1000001010101 Y
b11000111101 #
b11000111101 J
b11000111101 T
b11000111101 `
b101000011000 $
b101000011000 9
b101000011000 a
b10 ^
b10 ]
b1 \
b10011 &
b10011 ;
b10011 X
b1000001000000100110011 (
b1000001000000100110011 Q
b1000001000000100110011 e
b10011 2
b10011 ?
b10011 V
b10001 1
b10001 A
b10001 W
b10010 3
b10010 <
b10010 =
b10010 @
b10010 M
1!
#38000
0!
b10010 g
#39000
b1101001101101 %
b1101001101101 [
b1101001101101 _
b101000011000 '
b101000011000 7
b101000011000 U
b1101001101101 5
b1101001101101 :
b1101001101101 I
b1101001101101 Y
b101000011000 #
b101000011000 J
b101000011000 T
b101000011000 `
b1000001010101 $
b1000001010101 9
b1000001010101 a
b1 ^
b1 ]
b10 \
b10100 &
b10100 ;
b10100 X
b100010000000010110011 (
b100010000000010110011 Q
b100010000000010110011 e
b10100 2
b10100 ?
b10100 V
b10010 1
b10010 A
b10010 W
b10011 3
b10011 <
b10011 =
b10011 @
b10011 M
1!
#40000
0!
b10011 g
#41000
b10101011000010 %
b10101011000010 [
b10101011000010 _
b1000001010101 '
b1000001010101 7
b1000001010101 U
b10101011000010 5
b10101011000010 :
b10101011000010 I
b10101011000010 Y
b1000001010101 #
b1000001010101 J
b1000001010101 T
b1000001010101 `
b1101001101101 $
b1101001101101 9
b1101001101101 a
b10 ^
b10 ]
b1 \
b10101 &
b10101 ;
b10101 X
b1000001000000100110011 (
b1000001000000100110011 Q
b1000001000000100110011 e
b10101 2
b10101 ?
b10101 V
b10011 1
b10011 A
b10011 W
b10100 3
b10100 <
b10100 =
b10100 @
b10100 M
1!
#42000
0!
b10100 g
#43000
b100010100101111 %
b100010100101111 [
b100010100101111 _
b1101001101101 '
b1101001101101 7
b1101001101101 U
b100010100101111 5
b100010100101111 :
b100010100101111 I
b100010100101111 Y
b1101001101101 #
b1101001101101 J
b1101001101101 T
b1101001101101 `
b10101011000010 $
b10101011000010 9
b10101011000010 a
b1 ^
b1 ]
b10 \
b10110 &
b10110 ;
b10110 X
b100010000000010110011 (
b100010000000010110011 Q
b100010000000010110011 e
b10110 2
b10110 ?
b10110 V
b10100 1
b10100 A
b10100 W
b10101 3
b10101 <
b10101 =
b10101 @
b10101 M
1!
#44000
0!
b10101 g
#45000
b110111111110001 %
b110111111110001 [
b110111111110001 _
b10101011000010 '
b10101011000010 7
b10101011000010 U
b110111111110001 5
b110111111110001 :
b110111111110001 I
b110111111110001 Y
b10101011000010 #
b10101011000010 J
b10101011000010 T
b10101011000010 `
b100010100101111 $
b100010100101111 9
b100010100101111 a
b10 ^
b10 ]
b1 \
b10111 &
b10111 ;
b10111 X
b1000001000000100110011 (
b1000001000000100110011 Q
b1000001000000100110011 e
b10111 2
b10111 ?
b10111 V
b10101 1
b10101 A
b10101 W
b10110 3
b10110 <
b10110 =
b10110 @
b10110 M
1!
#46000
0!
b10110 g
#47000
b1011010100100000 %
b1011010100100000 [
b1011010100100000 _
b100010100101111 '
b100010100101111 7
b100010100101111 U
b1011010100100000 5
b1011010100100000 :
b1011010100100000 I
b1011010100100000 Y
b100010100101111 #
b100010100101111 J
b100010100101111 T
b100010100101111 `
b110111111110001 $
b110111111110001 9
b110111111110001 a
b1 ^
b1 ]
b10 \
b11000 &
b11000 ;
b11000 X
b100010000000010110011 (
b100010000000010110011 Q
b100010000000010110011 e
b11000 2
b11000 ?
b11000 V
b10110 1
b10110 A
b10110 W
b10111 3
b10111 <
b10111 =
b10111 @
b10111 M
1!
#48000
0!
b10111 g
#49000
b10010010100010001 %
b10010010100010001 [
b10010010100010001 _
b110111111110001 '
b110111111110001 7
b110111111110001 U
b10010010100010001 5
b10010010100010001 :
b10010010100010001 I
b10010010100010001 Y
b110111111110001 #
b110111111110001 J
b110111111110001 T
b110111111110001 `
b1011010100100000 $
b1011010100100000 9
b1011010100100000 a
b10 ^
b10 ]
b1 \
b11001 &
b11001 ;
b11001 X
b1000001000000100110011 (
b1000001000000100110011 Q
b1000001000000100110011 e
b11001 2
b11001 ?
b11001 V
b10111 1
b10111 A
b10111 W
b11000 3
b11000 <
b11000 =
b11000 @
b11000 M
1!
#50000
0!
b11000 g
#51000
b11101101000110001 %
b11101101000110001 [
b11101101000110001 _
b1011010100100000 '
b1011010100100000 7
b1011010100100000 U
b11101101000110001 5
b11101101000110001 :
b11101101000110001 I
b11101101000110001 Y
b1011010100100000 #
b1011010100100000 J
b1011010100100000 T
b1011010100100000 `
b10010010100010001 $
b10010010100010001 9
b10010010100010001 a
b1 ^
b1 ]
b10 \
b11010 &
b11010 ;
b11010 X
b100010000000010110011 (
b100010000000010110011 Q
b100010000000010110011 e
b11010 2
b11010 ?
b11010 V
b11000 1
b11000 A
b11000 W
b11001 3
b11001 <
b11001 =
b11001 @
b11001 M
1!
#52000
0!
b11001 g
#53000
b101111111101000010 %
b101111111101000010 [
b101111111101000010 _
b10010010100010001 '
b10010010100010001 7
b10010010100010001 U
b101111111101000010 5
b101111111101000010 :
b101111111101000010 I
b101111111101000010 Y
b10010010100010001 #
b10010010100010001 J
b10010010100010001 T
b10010010100010001 `
b11101101000110001 $
b11101101000110001 9
b11101101000110001 a
b10 ^
b10 ]
b1 \
b11011 &
b11011 ;
b11011 X
b1000001000000100110011 (
b1000001000000100110011 Q
b1000001000000100110011 e
b11011 2
b11011 ?
b11011 V
b11001 1
b11001 A
b11001 W
b11010 3
b11010 <
b11010 =
b11010 @
b11010 M
1!
#54000
0!
b11010 g
#55000
b1001101100101110011 %
b1001101100101110011 [
b1001101100101110011 _
b11101101000110001 '
b11101101000110001 7
b11101101000110001 U
b1001101100101110011 5
b1001101100101110011 :
b1001101100101110011 I
b1001101100101110011 Y
b11101101000110001 #
b11101101000110001 J
b11101101000110001 T
b11101101000110001 `
b101111111101000010 $
b101111111101000010 9
b101111111101000010 a
b1 ^
b1 ]
b10 \
b11100 &
b11100 ;
b11100 X
b100010000000010110011 (
b100010000000010110011 Q
b100010000000010110011 e
b11100 2
b11100 ?
b11100 V
b11010 1
b11010 A
b11010 W
b11011 3
b11011 <
b11011 =
b11011 @
b11011 M
1!
#56000
0!
b11011 g
#57000
b1111101100010110101 %
b1111101100010110101 [
b1111101100010110101 _
b101111111101000010 '
b101111111101000010 7
b101111111101000010 U
b1111101100010110101 5
b1111101100010110101 :
b1111101100010110101 I
b1111101100010110101 Y
b101111111101000010 #
b101111111101000010 J
b101111111101000010 T
b101111111101000010 `
b1001101100101110011 $
b1001101100101110011 9
b1001101100101110011 a
b10 ^
b10 ]
b1 \
b11101 &
b11101 ;
b11101 X
b1000001000000100110011 (
b1000001000000100110011 Q
b1000001000000100110011 e
b11101 2
b11101 ?
b11101 V
b11011 1
b11011 A
b11011 W
b11100 3
b11100 <
b11100 =
b11100 @
b11100 M
1!
#58000
0!
b11100 g
#59000
b11001011001000101000 %
b11001011001000101000 [
b11001011001000101000 _
b1001101100101110011 '
b1001101100101110011 7
b1001101100101110011 U
b11001011001000101000 5
b11001011001000101000 :
b11001011001000101000 I
b11001011001000101000 Y
b1001101100101110011 #
b1001101100101110011 J
b1001101100101110011 T
b1001101100101110011 `
b1111101100010110101 $
b1111101100010110101 9
b1111101100010110101 a
b1 ^
b1 ]
b10 \
b11110 &
b11110 ;
b11110 X
b100010000000010110011 (
b100010000000010110011 Q
b100010000000010110011 e
b11110 2
b11110 ?
b11110 V
b11100 1
b11100 A
b11100 W
b11101 3
b11101 <
b11101 =
b11101 @
b11101 M
1!
#60000
0!
b11101 g
#61000
b101001000101011011101 %
b101001000101011011101 [
b101001000101011011101 _
b1111101100010110101 '
b1111101100010110101 7
b1111101100010110101 U
b101001000101011011101 5
b101001000101011011101 :
b101001000101011011101 I
b101001000101011011101 Y
b1111101100010110101 #
b1111101100010110101 J
b1111101100010110101 T
b1111101100010110101 `
b11001011001000101000 $
b11001011001000101000 9
b11001011001000101000 a
b10 ^
b10 ]
b1 \
b11111 &
b11111 ;
b11111 X
b1000001000000100110011 (
b1000001000000100110011 Q
b1000001000000100110011 e
b11111 2
b11111 ?
b11111 V
b11101 1
b11101 A
b11101 W
b11110 3
b11110 <
b11110 =
b11110 @
b11110 M
1!
#62000
0!
b11110 g
#63000
b1000010011110100000101 %
b1000010011110100000101 [
b1000010011110100000101 _
b11001011001000101000 '
b11001011001000101000 7
b11001011001000101000 U
b1000010011110100000101 5
b1000010011110100000101 :
b1000010011110100000101 I
b1000010011110100000101 Y
b11001011001000101000 #
b11001011001000101000 J
b11001011001000101000 T
b11001011001000101000 `
b101001000101011011101 $
b101001000101011011101 9
b101001000101011011101 a
b1 ^
b1 ]
b10 \
b100000 &
b100000 ;
b100000 X
b100010000000010110011 (
b100010000000010110011 Q
b100010000000010110011 e
b100000 2
b100000 ?
b100000 V
b11110 1
b11110 A
b11110 W
b11111 3
b11111 <
b11111 =
b11111 @
b11111 M
1!
#64000
0!
b11111 g
#65000
b1101011100011111100010 %
b1101011100011111100010 [
b1101011100011111100010 _
b101001000101011011101 '
b101001000101011011101 7
b101001000101011011101 U
b1101011100011111100010 5
b1101011100011111100010 :
b1101011100011111100010 I
b1101011100011111100010 Y
b101001000101011011101 #
b101001000101011011101 J
b101001000101011011101 T
b101001000101011011101 `
b1000010011110100000101 $
b1000010011110100000101 9
b1000010011110100000101 a
b10 ^
b10 ]
b1 \
b100001 &
b100001 ;
b100001 X
b1000001000000100110011 (
b1000001000000100110011 Q
b1000001000000100110011 e
b100001 2
b100001 ?
b100001 V
b11111 1
b11111 A
b11111 W
b100000 3
b100000 <
b100000 =
b100000 @
b100000 M
1!
#66000
0!
b100000 g
#67000
b10101110000010011100111 %
b10101110000010011100111 [
b10101110000010011100111 _
b1000010011110100000101 '
b1000010011110100000101 7
b1000010011110100000101 U
b10101110000010011100111 5
b10101110000010011100111 :
b10101110000010011100111 I
b10101110000010011100111 Y
b1000010011110100000101 #
b1000010011110100000101 J
b1000010011110100000101 T
b1000010011110100000101 `
b1101011100011111100010 $
b1101011100011111100010 9
b1101011100011111100010 a
b1 ^
b1 ]
b10 \
b100010 &
b100010 ;
b100010 X
b100010000000010110011 (
b100010000000010110011 Q
b100010000000010110011 e
b100010 2
b100010 ?
b100010 V
b100000 1
b100000 A
b100000 W
b100001 3
b100001 <
b100001 =
b100001 @
b100001 M
1!
#68000
0!
b100001 g
#69000
b100011001100110011001001 %
b100011001100110011001001 [
b100011001100110011001001 _
b1101011100011111100010 '
b1101011100011111100010 7
b1101011100011111100010 U
b100011001100110011001001 5
b100011001100110011001001 :
b100011001100110011001001 I
b100011001100110011001001 Y
b1101011100011111100010 #
b1101011100011111100010 J
b1101011100011111100010 T
b1101011100011111100010 `
b10101110000010011100111 $
b10101110000010011100111 9
b10101110000010011100111 a
b10 ^
b10 ]
b1 \
b100011 &
b100011 ;
b100011 X
b1000001000000100110011 (
b1000001000000100110011 Q
b1000001000000100110011 e
b100011 2
b100011 ?
b100011 V
b100001 1
b100001 A
b100001 W
b100010 3
b100010 <
b100010 =
b100010 @
b100010 M
1!
#70000
0!
b100010 g
#71000
b111000111101000110110000 %
b111000111101000110110000 [
b111000111101000110110000 _
b10101110000010011100111 '
b10101110000010011100111 7
b10101110000010011100111 U
b111000111101000110110000 5
b111000111101000110110000 :
b111000111101000110110000 I
b111000111101000110110000 Y
b10101110000010011100111 #
b10101110000010011100111 J
b10101110000010011100111 T
b10101110000010011100111 `
b100011001100110011001001 $
b100011001100110011001001 9
b100011001100110011001001 a
b1 ^
b1 ]
b10 \
b100100 &
b100100 ;
b100100 X
b100010000000010110011 (
b100010000000010110011 Q
b100010000000010110011 e
b100100 2
b100100 ?
b100100 V
b100010 1
b100010 A
b100010 W
b100011 3
b100011 <
b100011 =
b100011 @
b100011 M
1!
#72000
0!
b100011 g
#73000
b1011100001001111001111001 %
b1011100001001111001111001 [
b1011100001001111001111001 _
b100011001100110011001001 '
b100011001100110011001001 7
b100011001100110011001001 U
b1011100001001111001111001 5
b1011100001001111001111001 :
b1011100001001111001111001 I
b1011100001001111001111001 Y
b100011001100110011001001 #
b100011001100110011001001 J
b100011001100110011001001 T
b100011001100110011001001 `
b111000111101000110110000 $
b111000111101000110110000 9
b111000111101000110110000 a
b10 ^
b10 ]
b1 \
b100101 &
b100101 ;
b100101 X
b1000001000000100110011 (
b1000001000000100110011 Q
b1000001000000100110011 e
b100101 2
b100101 ?
b100101 V
b100011 1
b100011 A
b100011 W
b100100 3
b100100 <
b100100 =
b100100 @
b100100 M
1!
#74000
0!
b100100 g
