Proyecto_1/prueba_monocicle.vcd
$date
	Mon Apr 08 21:29:42 2024
$end
$version
	Icarus Verilog
$end
$timescale
	1ps
$end
$scope module z_monocicle_tb $end
$var reg 1 ! CLK $end
$var reg 1 " RST $end
$scope module monocicle_prueba $end
$var wire 1 ! CLK $end
$var wire 1 " RST $end
$var wire 64 # regtomux1 [63:0] $end
$var wire 64 $ regtoALU [63:0] $end
$var wire 64 % mux3toreg [63:0] $end
$var wire 64 & mux2toPC [63:0] $end
$var wire 64 ' mux1toALU [63:0] $end
$var wire 32 ( instruction [31:0] $end
$var wire 64 ) immgentomux1 [63:0] $end
$var wire 1 * decotoreg $end
$var wire 1 + decotomux3 $end
$var wire 1 , decotomux1 $end
$var wire 1 - decotodatamem $end
$var wire 1 . decotoAND $end
$var wire 4 / decotoALU [3:0] $end
$var wire 64 0 data_memtomux3 [63:0] $end
$var wire 64 1 adder2tomux2 [63:0] $end
$var wire 64 2 adder1tomux2 [63:0] $end
$var wire 64 3 PCtoInst_mem [63:0] $end
$var wire 1 4 ANDtomux2 $end
$var wire 64 5 ALUtodata_mem [63:0] $end
$var wire 1 6 ALUtoAND $end
$scope module ALU_mono $end
$var wire 64 7 B [63:0] $end
$var wire 4 8 ALU_operation [3:0] $end
$var wire 64 9 A [63:0] $end
$var reg 64 : ALU_result [63:0] $end
$var reg 1 6 zero $end
$upscope $end
$scope module PC_mono $end
$var wire 1 ! clk $end
$var wire 1 " rst $end
$var wire 64 ; IN [63:0] $end
$var reg 64 < OUT [63:0] $end
$upscope $end
$scope module adder1 $end
$var wire 64 = A [63:0] $end
$var wire 64 > B [63:0] $end
$var wire 64 ? Q [63:0] $end
$upscope $end
$scope module adder2 $end
$var wire 64 @ A [63:0] $end
$var wire 64 A Q [63:0] $end
$var wire 64 B B [63:0] $end
$upscope $end
$scope module control_mono $end
$var wire 11 C instruction [10:0] $end
$var parameter 7 D arit_op $end
$var parameter 7 E beq_op $end
$var parameter 7 F lw_op $end
$var parameter 7 G sw_op $end
$var reg 4 H ALUOp [3:0] $end
$var reg 1 , ALUSrc $end
$var reg 1 . Branch $end
$var reg 1 - MemWrite $end
$var reg 1 + MemtoReg $end
$var reg 1 * RegWrite $end
$upscope $end
$scope module data_mono $end
$var wire 64 I address [63:0] $end
$var wire 1 ! clk $end
$var wire 1 " rst $end
$var wire 1 - wrt_en $end
$var wire 64 J write_data [63:0] $end
$var reg 64 K read_data [63:0] $end
$var integer 32 L i [31:0] $end
$upscope $end
$scope module gate $end
$var wire 1 . a $end
$var wire 1 6 b $end
$var wire 1 4 q $end
$upscope $end
$scope module inst_mono $end
$var wire 1 ! clk $end
$var wire 64 M read_adr [63:0] $end
$var wire 1 " rst $end
$var parameter 32 N adr_in $end
$var parameter 32 O depth $end
$var parameter 32 P width $end
$var reg 32 Q instruction [31:0] $end
$var integer 32 R i [31:0] $end
$upscope $end
$scope module mux1 $end
$var wire 1 , SEL $end
$var wire 64 S IN1 [63:0] $end
$var wire 64 T IN0 [63:0] $end
$var reg 64 U OUT [63:0] $end
$upscope $end
$scope module mux2 $end
$var wire 64 V IN0 [63:0] $end
$var wire 64 W IN1 [63:0] $end
$var wire 1 4 SEL $end
$var reg 64 X OUT [63:0] $end
$upscope $end
$scope module mux3 $end
$var wire 64 Y IN0 [63:0] $end
$var wire 64 Z IN1 [63:0] $end
$var wire 1 + SEL $end
$var reg 64 [ OUT [63:0] $end
$upscope $end
$scope module register_mono $end
$var wire 5 \ adr_reg1 [4:0] $end
$var wire 5 ] adr_reg2 [4:0] $end
$var wire 5 ^ adr_wr_reg [4:0] $end
$var wire 1 ! clk $end
$var wire 1 * regwrite $end
$var wire 1 " rst $end
$var wire 64 _ wr_data [63:0] $end
$var wire 64 ` reg_data2 [63:0] $end
$var wire 64 a reg_data1 [63:0] $end
$var parameter 32 b depth $end
$var parameter 32 c width $end
$scope begin $ivl_for_loop0 $end
$var integer 32 d i [31:0] $end
$upscope $end
$upscope $end
$scope module signextend_mono $end
$var wire 32 e IN [31:0] $end
$var reg 64 f OUT [63:0] $end
$upscope $end
$upscope $end
$scope begin $ivl_for_loop1 $end
$var integer 32 g i [31:0] $end
$upscope $end
$scope task mostrar_data_mem $end
$scope begin $ivl_for_loop4 $end
$upscope $end
$upscope $end
$scope task mostrar_inst_mem $end
$scope begin $ivl_for_loop2 $end
$upscope $end
$upscope $end
$scope task mostrar_regs $end
$scope begin $ivl_for_loop3 $end
$upscope $end
$upscope $end
$upscope $end
$enddefinitions $end
$comment Show the parameter values. $end
$dumpall
b1000000 c
b100000 b
b100000 P
b1010000 O
b1000000 N
b100011 G
b11 F
b1100011 E
b110011 D
$end
#0
$dumpvars
bx g
bx f
bx e
bx d
bx a
bx `
bx _
bx ^
bx ]
bx \
bx [
bx Z
bx Y
bx X
bx W
bx V
bx U
bx T
bx S
bx R
bx Q
bx M
bx L
bx K
bx J
bx I
bx H
bx C
bx B
bx A
bx @
bx ?
b1 >
bx =
bx <
bx ;
bx :
bx 9
bx 8
bx 7
x6
bx 5
x4
bx 3
bx 2
bx 1
bx 0
bx /
x.
x-
x,
x+
x*
bx )
bx (
bx '
bx &
bx %
bx $
bx #
0"
0!
$end
#1000
b0xxxxxxxx %
b0xxxxxxxx [
b0xxxxxxxx _
b0xxxxxxxx 0
b0xxxxxxxx K
b0xxxxxxxx Z
04
06
b1111111111111111111111111111111111111111111111111111111111111111 5
b1111111111111111111111111111111111111111111111111111111111111111 :
b1111111111111111111111111111111111111111111111111111111111111111 I
b1111111111111111111111111111111111111111111111111111111111111111 Y
b1 &
b1 ;
b1 X
b1111111111111111111111111111111111111111111111111111111111111111 '
b1111111111111111111111111111111111111111111111111111111111111111 7
b1111111111111111111111111111111111111111111111111111111111111111 U
b1111 /
b1111 8
b1111 H
0.
1+
1-
1,
1*
b0 #
b0 J
b0 T
b0 `
b0 $
b0 9
b0 a
b1111111111111111111111111111111111111111111111111111111111111111 1
b1111111111111111111111111111111111111111111111111111111111111111 A
b1111111111111111111111111111111111111111111111111111111111111111 W
b1111111111111111111111111111111111111111111111111111111111111111 )
b1111111111111111111111111111111111111111111111111111111111111111 B
b1111111111111111111111111111111111111111111111111111111111111111 S
b1111111111111111111111111111111111111111111111111111111111111111 f
b0 C
b0 ^
b0 ]
b0 \
b0 (
b0 Q
b0 e
1"
b100000 d
b1000000 L
b1010000 R
b1 2
b1 ?
b1 V
b0 3
b0 <
b0 =
b0 @
b0 M
1!
#2000
16
b0 5
b0 :
b0 I
b0 Y
b0 '
b0 7
b0 U
b10 /
b10 8
b10 H
0+
0*
b0 1
b0 A
b0 W
b0 )
b0 B
b0 S
b0 f
b100100011 C
b1 ]
b0 %
b0 [
b0 _
b100000010000000100011 (
b100000010000000100011 Q
b100000010000000100011 e
b11 0
b11 K
b11 Z
b0 g
0!
#3000
b110100 0
b110100 K
b110100 Z
b1000 %
b1000 [
b1000 _
06
b1000 5
b1000 :
b1000 I
b1000 Y
b1000 '
b1000 7
b1000 U
b1000 )
b1000 B
b1000 S
b1000 f
b1000 ^
b10 ]
b10 &
b10 ;
b10 X
b1000000010010000100011 (
b1000000010010000100011 Q
b1000000010010000100011 e
b10 2
b10 ?
b10 V
b1001 1
b1001 A
b1001 W
b1 3
b1 <
b1 =
b1 @
b1 M
1!
#4000
0!
b1 g
#5000
b100101100 0
b100101100 K
b100101100 Z
b10000 %
b10000 [
b10000 _
b10000 5
b10000 :
b10000 I
b10000 Y
b10000 '
b10000 7
b10000 U
b10000 )
b10000 B
b10000 S
b10000 f
b10000 ^
b11 ]
b11 &
b11 ;
b11 X
b1100000010100000100011 (
b1100000010100000100011 Q
b1100000010100000100011 e
b11 2
b11 ?
b11 V
b10010 1
b10010 A
b10010 W
b10 3
b10 <
b10 =
b10 @
b10 M
1!
#6000
0!
b10 g
#7000
b0xxxxxxxx 0
b0xxxxxxxx K
b0xxxxxxxx Z
b1111111111111111111111111111111111111111111111111111111111111111 5
b1111111111111111111111111111111111111111111111111111111111111111 :
b1111111111111111111111111111111111111111111111111111111111111111 I
b1111111111111111111111111111111111111111111111111111111111111111 Y
b0xxxxxxxx %
b0xxxxxxxx [
b0xxxxxxxx _
b1111111111111111111111111111111111111111111111111111111111111111 '
b1111111111111111111111111111111111111111111111111111111111111111 7
b1111111111111111111111111111111111111111111111111111111111111111 U
b1111 /
b1111 8
b1111 H
1+
1*
b1111111111111111111111111111111111111111111111111111111111111111 )
b1111111111111111111111111111111111111111111111111111111111111111 B
b1111111111111111111111111111111111111111111111111111111111111111 S
b1111111111111111111111111111111111111111111111111111111111111111 f
b0 C
b0 ^
b0 ]
b100 &
b100 ;
b100 X
b0 (
b0 Q
b0 e
b100 2
b100 ?
b100 V
b10 1
b10 A
b10 W
b11 3
b11 <
b11 =
b11 @
b11 M
1!
#8000
0!
b11 g
#9000
b101 &
b101 ;
b101 X
b101 2
b101 ?
b101 V
b11 1
b11 A
b11 W
b100 3
b100 <
b100 =
b100 @
b100 M
1!
#10000
0!
b100 g
#11000
b110 &
b110 ;
b110 X
b110 2
b110 ?
b110 V
b100 1
b100 A
b100 W
b101 3
b101 <
b101 =
b101 @
b101 M
1!
#12000
0!
b101 g
