Proyecto_2/prueba_pipeline.vcd
$date
	Tue May 28 09:37:26 2024
$end
$version
	Icarus Verilog
$end
$timescale
	1ns
$end
$scope module z_pipeline_tb $end
$var reg 1 ! CLK $end
$var reg 1 " RST $end
$scope module pipeline_prueba $end
$var wire 1 ! clk $end
$var wire 1 " rst $end
$var wire 1 # stall_signal_for_mux $end
$var wire 32 $ result_op_to_data_mem_skip_mux [31:0] $end
$var wire 32 % register_2 [31:0] $end
$var wire 1 & register_1_equals_register_2 $end
$var wire 32 ' register_1 [31:0] $end
$var wire 32 ( pipe_pc_passthrough [31:0] $end
$var wire 32 ) pc_to_inst_mem [31:0] $end
$var wire 32 * pc_mux_to_pc [31:0] $end
$var wire 32 + pc_adder_to_pc_mux [31:0] $end
$var wire 1 , mem_wb_regwrite_to_registers $end
$var wire 1 - mem_wb_memtoreg_to_data_mem_skip_mux $end
$var wire 5 . mem_wb_a_rd_to_registers [4:0] $end
$var wire 32 / instruction [31:0] $end
$var wire 32 0 inst_mem_to_inst_pipe [31:0] $end
$var wire 32 1 immediate_sexted [31:0] $end
$var wire 32 2 imm_adder_to_pc_mux [31:0] $end
$var wire 32 3 id_ex_rs2_to_forward_b_mux [31:0] $end
$var wire 32 4 id_ex_rs1_to_forward_a_mux [31:0] $end
$var wire 1 5 id_ex_regwrite_to_ex_mem $end
$var wire 1 6 id_ex_memwrite_to_ex_mem $end
$var wire 1 7 id_ex_memtoreg_to_ex_mem $end
$var wire 1 8 id_ex_memtoread_to_hazards $end
$var wire 32 9 id_ex_imm_sexted_to_alu_src_mux [31:0] $end
$var wire 1 : id_ex_alusrc_to_alusrc_mux $end
$var wire 4 ; id_ex_aluop_to_alu [3:0] $end
$var wire 5 < id_ex_a_rs2_to_forwarding [4:0] $end
$var wire 5 = id_ex_a_rs1_to_forwarding [4:0] $end
$var wire 5 > id_ex_a_rd_to_ex_mem [4:0] $end
$var wire 1 ? hazard_unit_stall_signal $end
$var wire 1 @ hazard_unit_pcwrite_signal $end
$var wire 2 A forwarding_forward_b_sel_signal [1:0] $end
$var wire 2 B forwarding_forward_a_sel_signal [1:0] $end
$var wire 32 C forward_b_mux_to_alu_src_mux [31:0] $end
$var wire 32 D forward_a_mux_to_alu_a_in [31:0] $end
$var wire 32 E ex_mem_wr_data_to_data_mem [31:0] $end
$var wire 32 F ex_mem_result_op_to_data_mem [31:0] $end
$var wire 1 G ex_mem_regwrite_to_mem_wb $end
$var wire 1 H ex_mem_memwrite_to_data_mem $end
$var wire 1 I ex_mem_memtoreg_to_mem_wb $end
$var wire 5 J ex_mem_a_rd_to_mem_wb [4:0] $end
$var wire 32 K data_read_to_data_mem_skip_mux [31:0] $end
$var wire 32 L data_mem_skip_mux_out_to_registers [31:0] $end
$var wire 32 M data_mem_out_to_mem_wb [31:0] $end
$var wire 9 N control_signals_to_be_muxed [8:0] $end
$var wire 9 O control_signals_from_mux [8:0] $end
$var wire 1 P control_regwrite_to_mux $end
$var wire 1 Q control_pcsrc $end
$var wire 1 R control_memwrite_to_mux $end
$var wire 1 S control_memtoreg_to_mux $end
$var wire 1 T control_memtoread_to_mux $end
$var wire 1 U control_alusrc_to_mux $end
$var wire 1 V and_branch_was_taken $end
$var wire 32 W alu_src_mux_to_alu_b_in [31:0] $end
$var wire 32 X alu_out_to_ex_mem_pipe [31:0] $end
$var wire 4 Y alu_operation [3:0] $end
$var parameter 32 Z WIDTH $end
$var reg 4 [ mux_aluop_to_id_ex [3:0] $end
$var reg 1 \ mux_alusrc_to_id_ex $end
$var reg 1 ] mux_memtoread_to_id_ex $end
$var reg 1 ^ mux_memtoreg_to_id_ex $end
$var reg 1 _ mux_memwrite_to_id_ex $end
$var reg 1 ` mux_regwrite_to_id_ex $end
$scope module ALU $end
$var wire 32 a B [31:0] $end
$var wire 4 b ALU_OPERATION [3:0] $end
$var wire 32 c A [31:0] $end
$var parameter 32 d WIDTH $end
$var reg 32 e ALU_RESULT [31:0] $end
$upscope $end
$scope module ALUSRC_MUX $end
$var wire 1 : SEL $end
$var wire 32 f IN1 [31:0] $end
$var wire 32 g IN0 [31:0] $end
$var parameter 32 h WIDTH $end
$var reg 32 i OUT [31:0] $end
$upscope $end
$scope module AND_BRANCHING $end
$var wire 1 V Q $end
$var wire 1 Q B $end
$var wire 1 & A $end
$upscope $end
$scope module BRANCH_COMPARE $end
$var wire 32 j IN2 [31:0] $end
$var wire 32 k IN1 [31:0] $end
$var parameter 32 l WIDTH $end
$var reg 1 & OUT $end
$upscope $end
$scope module CONTROL_UNIT $end
$var wire 32 m INSTRUCTION [31:0] $end
$var parameter 32 n WIDTH $end
$var parameter 7 o arit_op $end
$var parameter 7 p beq_op $end
$var parameter 7 q lw_op $end
$var parameter 7 r sw_op $end
$var reg 4 s ALUOP [3:0] $end
$var reg 1 U ALUSRC $end
$var reg 1 T MEMTOREAD $end
$var reg 1 S MEMTOREG $end
$var reg 1 R MEMWRITE $end
$var reg 1 Q PCSRC $end
$var reg 1 P REGWRITE $end
$upscope $end
$scope module DATA_MEM $end
$var wire 11 t address [10:0] $end
$var wire 1 ! clk $end
$var wire 1 " rst $end
$var wire 1 H wrt_en $end
$var wire 32 u write_data [31:0] $end
$var reg 32 v read_data [31:0] $end
$var integer 32 w i [31:0] $end
$upscope $end
$scope module FORWARDING_UNIT $end
$var wire 1 , REGWRITE_MEM_WB $end
$var wire 1 G REGWRITE_EX_MEM $end
$var wire 5 x ARS2 [4:0] $end
$var wire 5 y ARS1 [4:0] $end
$var wire 5 z ARD_MEM_WB [4:0] $end
$var wire 5 { ARD_EX_MEM [4:0] $end
$var reg 2 | FORWARD_A [1:0] $end
$var reg 2 } FORWARD_B [1:0] $end
$upscope $end
$scope module FORWARD_A_MUX $end
$var wire 32 ~ IN3 [31:0] $end
$var wire 2 !" SEL [1:0] $end
$var wire 32 "" IN2 [31:0] $end
$var wire 32 #" IN1 [31:0] $end
$var wire 32 $" IN0 [31:0] $end
$var parameter 32 %" WIDTH $end
$var reg 32 &" OUT [31:0] $end
$upscope $end
$scope module FORWARD_B_MUX $end
$var wire 32 '" IN3 [31:0] $end
$var wire 2 (" SEL [1:0] $end
$var wire 32 )" IN2 [31:0] $end
$var wire 32 *" IN1 [31:0] $end
$var wire 32 +" IN0 [31:0] $end
$var parameter 32 ," WIDTH $end
$var reg 32 -" OUT [31:0] $end
$upscope $end
$scope module HAZARD_UNIT $end
$var wire 5 ." ARS1_IF_ID [4:0] $end
$var wire 5 /" ARS2_IF_ID [4:0] $end
$var wire 1 & BEQ_WRONG_PRED $end
$var wire 7 0" OP_CODE [6:0] $end
$var wire 1 8 MEMREAD_ID_EX $end
$var wire 5 1" ARD_ID_EX [4:0] $end
$var parameter 7 2" beq_op $end
$var reg 1 # MUX_SEL $end
$var reg 1 @ PCWRITE $end
$var reg 1 ? STALL $end
$upscope $end
$scope module IMM_ADDER $end
$var wire 32 3" Q [31:0] $end
$var wire 32 4" B [31:0] $end
$var wire 32 5" A [31:0] $end
$var parameter 32 6" WIDTH $end
$upscope $end
$scope module IMM_GEN_SIGN_EXTENDED $end
$var wire 32 7" IN [31:0] $end
$var parameter 32 8" WIDTH $end
$var reg 32 9" OUT [31:0] $end
$upscope $end
$scope module INST_MEM $end
$var wire 1 ! clk $end
$var wire 11 :" read_adr [10:0] $end
$var wire 1 " rst $end
$var parameter 32 ;" adr_in $end
$var parameter 32 <" depth $end
$var parameter 32 =" width $end
$var reg 32 >" instruction [31:0] $end
$var integer 32 ?" i [31:0] $end
$upscope $end
$scope module MEM_TO_REG_MUX $end
$var wire 1 - SEL $end
$var wire 32 @" IN1 [31:0] $end
$var wire 32 A" IN0 [31:0] $end
$var parameter 32 B" WIDTH $end
$var reg 32 C" OUT [31:0] $end
$upscope $end
$scope module PC $end
$var wire 1 @ STALL $end
$var wire 1 ! clk $end
$var wire 1 " rst $end
$var wire 32 D" IN [31:0] $end
$var parameter 32 E" WIDTH $end
$var reg 32 F" OUT [31:0] $end
$upscope $end
$scope module PC_ADDER $end
$var wire 32 G" A [31:0] $end
$var wire 32 H" B [31:0] $end
$var wire 32 I" Q [31:0] $end
$var parameter 32 J" WIDTH $end
$upscope $end
$scope module PC_MUX $end
$var wire 32 K" IN0 [31:0] $end
$var wire 32 L" IN1 [31:0] $end
$var wire 1 V SEL $end
$var parameter 32 M" WIDTH $end
$var reg 32 N" OUT [31:0] $end
$upscope $end
$scope module PIPE_EX_MEM $end
$var wire 32 O" RESULTOP_IN [31:0] $end
$var wire 32 P" WRDATA_IN [31:0] $end
$var wire 1 ! clk $end
$var wire 1 " rst $end
$var wire 1 5 REGWRITE_IN $end
$var wire 1 6 MEMWRITE_IN $end
$var wire 1 7 MEMTOREG_IN $end
$var wire 5 Q" ARD_IN [4:0] $end
$var parameter 32 R" WIDTH $end
$var reg 5 S" ARD_OUT [4:0] $end
$var reg 1 I MEMTOREG_OUT $end
$var reg 1 H MEMWRITE_OUT $end
$var reg 1 G REGWRITE_OUT $end
$var reg 32 T" RESULTOP_OUT [31:0] $end
$var reg 32 U" WRDATA_OUT [31:0] $end
$upscope $end
$scope module PIPE_ID_EX $end
$var wire 4 V" ALUOP_IN [3:0] $end
$var wire 1 \ ALUSRC_IN $end
$var wire 5 W" ARD_IN [4:0] $end
$var wire 5 X" ARS1_IN [4:0] $end
$var wire 5 Y" ARS2_IN [4:0] $end
$var wire 32 Z" IMMEDIATE_IN [31:0] $end
$var wire 1 ] MEMREAD_IN $end
$var wire 1 ^ MEMTOREG_IN $end
$var wire 1 _ MEMWRITE_IN $end
$var wire 1 ` REGWRITE_IN $end
$var wire 1 ! clk $end
$var wire 1 " rst $end
$var wire 32 [" RS2_IN [31:0] $end
$var wire 32 \" RS1_IN [31:0] $end
$var parameter 32 ]" WIDTH $end
$var reg 4 ^" ALUOP_OUT [3:0] $end
$var reg 1 : ALUSRC_OUT $end
$var reg 5 _" ARD_OUT [4:0] $end
$var reg 5 `" ARS1_OUT [4:0] $end
$var reg 5 a" ARS2_OUT [4:0] $end
$var reg 32 b" IMMEDIATE_OUT [31:0] $end
$var reg 1 8 MEMREAD_OUT $end
$var reg 1 7 MEMTOREG_OUT $end
$var reg 1 6 MEMWRITE_OUT $end
$var reg 1 5 REGWRITE_OUT $end
$var reg 32 c" RS1_OUT [31:0] $end
$var reg 32 d" RS2_OUT [31:0] $end
$upscope $end
$scope module PIPE_IF_ID $end
$var wire 1 V FLUSH $end
$var wire 32 e" INSTRUCTION_IN [31:0] $end
$var wire 32 f" PC_IN [31:0] $end
$var wire 1 ? STALL $end
$var wire 1 ! clk $end
$var wire 1 " rst $end
$var parameter 32 g" WIDTH $end
$var reg 32 h" INSTRUCTION_OUT [31:0] $end
$var reg 32 i" PC_OUT [31:0] $end
$upscope $end
$scope module PIPE_MEM_WB $end
$var wire 5 j" ARD_IN [4:0] $end
$var wire 32 k" MEMDATA_IN [31:0] $end
$var wire 1 I MEMTOREG_IN $end
$var wire 1 G REGWRITE_IN $end
$var wire 32 l" RESULTOP_IN [31:0] $end
$var wire 1 ! clk $end
$var wire 1 " rst $end
$var parameter 32 m" WIDTH $end
$var reg 5 n" ARD_OUT [4:0] $end
$var reg 32 o" MEMDATA_OUT [31:0] $end
$var reg 1 - MEMTOREG_OUT $end
$var reg 1 , REGWRITE_OUT $end
$var reg 32 p" RESULTOP_OUT [31:0] $end
$upscope $end
$scope module REGISTERS $end
$var wire 5 q" ADR_REG1 [4:0] $end
$var wire 5 r" ADR_REG2 [4:0] $end
$var wire 5 s" ADR_WR_REG [4:0] $end
$var wire 1 , REGWRITE $end
$var wire 32 t" WR_DATA [31:0] $end
$var wire 1 ! clk $end
$var wire 1 " rst $end
$var wire 32 u" REG_DATA2 [31:0] $end
$var wire 32 v" REG_DATA1 [31:0] $end
$var parameter 32 w" DEPTH $end
$var parameter 32 x" WIDTH $end
$scope begin $ivl_for_loop0 $end
$var integer 32 y" i [31:0] $end
$upscope $end
$upscope $end
$scope module STALL_CONTROL_MUX $end
$var wire 9 z" IN0 [8:0] $end
$var wire 9 {" IN1 [8:0] $end
$var wire 1 # SEL $end
$var parameter 32 |" WIDTH $end
$var reg 9 }" OUT [8:0] $end
$upscope $end
$upscope $end
$scope begin $ivl_for_loop1 $end
$var integer 32 ~" i [31:0] $end
$upscope $end
$scope task mostrar_data_mem $end
$scope begin $ivl_for_loop4 $end
$upscope $end
$upscope $end
$scope task mostrar_inst_mem $end
$scope begin $ivl_for_loop2 $end
$upscope $end
$upscope $end
$scope task mostrar_regs $end
$scope begin $ivl_for_loop3 $end
$upscope $end
$upscope $end
$upscope $end
$enddefinitions $end
$comment Show the parameter values. $end
$dumpall
b1001 |"
b100000 x"
b100000 w"
b100000 m"
b100000 g"
b100000 ]"
b100000 R"
b100000 M"
b100000 J"
b100000 E"
b100000 B"
b100000 ="
b100000000000 <"
b1011 ;"
b100000 8"
b100000 6"
b1100011 2"
b100000 ,"
b100000 %"
b100011 r
b11 q
b1100011 p
b110011 o
b100000 n
b100000 l
b100000 h
b100000 d
b100000 Z
$end
#0
$dumpvars
bx ~"
bx }"
b0 {"
bx z"
bx y"
bx v"
bx u"
bx t"
bx s"
bx r"
bx q"
bx p"
bx o"
bx n"
bx l"
bx k"
bx j"
bx i"
bx h"
bx f"
bx e"
bx d"
bx c"
bx b"
bx a"
bx `"
bx _"
bx ^"
bx \"
bx ["
bx Z"
bx Y"
bx X"
bx W"
bx V"
bx U"
bx T"
bx S"
bx Q"
bx P"
bx O"
bx N"
bx L"
bx K"
bx I"
b100 H"
bx G"
bx F"
bx D"
bx C"
bx A"
bx @"
bx ?"
bx >"
bx :"
bx 9"
bx 7"
bx 5"
bx 4"
bx 3"
bx 1"
bx 0"
bx /"
bx ."
bx -"
bx +"
bx *"
bx )"
b0 ("
b0 '"
bx &"
bx $"
bx #"
bx ""
b0 !"
b0 ~
b0 }
b0 |
bx {
bx z
bx y
bx x
bx w
bx v
bx u
bx t
bx s
bx m
bx k
bx j
bx i
bx g
bx f
bx e
bx c
bx b
bx a
x`
x_
x^
x]
x\
bx [
bx Y
bx X
bx W
xV
xU
xT
xS
xR
xQ
xP
bx O
bx N
bx M
bx L
bx K
bx J
xI
xH
xG
bx F
bx E
bx D
bx C
b0 B
b0 A
0@
0?
bx >
bx =
bx <
bx ;
x:
bx 9
x8
x7
x6
x5
bx 4
bx 3
bx 2
bx 1
bx 0
bx /
bx .
x-
x,
bx +
bx *
bx )
bx (
bx '
x&
bx %
bx $
0#
0"
0!
$end
#1000
1&
b1111 [
b1111 V"
1\
1`
1^
1_
0]
b0 0
b0 >"
b0 e"
b0 %
b0 j
b0 ["
b0 u"
b0 '
b0 k
b0 \"
b0 v"
0V
b111111110 O
b111111110 }"
b0 M
b0 v
b0 k"
b100 *
b100 D"
b100 N"
b0 :"
b0 0"
b0 /"
b0 ."
b0 W"
b0 Y"
b0 X"
b0 r"
b0 q"
b1111 Y
b1111 s
0Q
1S
1R
1U
1P
b111111110 N
b111111110 z"
0T
b0 2
b0 3"
b0 L"
b0 1
b0 4"
b0 9"
b0 Z"
b0 X
b0 e
b0 O"
b0 W
b0 a
b0 i
b0 t
b0 D
b0 c
b0 &"
b0 C
b0 g
b0 -"
b0 P"
b0 L
b0 ""
b0 )"
b0 C"
b0 t"
b100 +
b100 I"
b100 K"
b0 )
b0 F"
b0 G"
b0 f"
b0 /
b0 m
b0 7"
b0 h"
b0 (
b0 5"
b0 i"
b0 9
b0 f
b0 b"
b0 4
b0 $"
b0 c"
b0 3
b0 +"
b0 d"
b0 =
b0 y
b0 `"
b0 <
b0 x
b0 a"
b0 >
b0 1"
b0 Q"
b0 _"
b0 ;
b0 b
b0 ^"
0:
05
07
06
08
b0 J
b0 {
b0 S"
b0 j"
b0 F
b0 #"
b0 *"
b0 T"
b0 l"
b0 E
b0 u
b0 U"
0H
0I
0G
b0 .
b0 z
b0 n"
b0 s"
b0 K
b0 A"
b0 o"
b0 $
b0 @"
b0 p"
0-
0,
1"
b1010000 ?"
b11111111111 w
1!
#2000
b10000000000010001010000011 0
b10000000000010001010000011 >"
b10000000000010001010000011 e"
b11 M
b11 v
b11 k"
b0 ~"
0!
#3000
b10 [
b10 V"
0_
1]
b1011101 O
b1011101 }"
b1000001000000100110011 0
b1000001000000100110011 >"
b1000001000000100110011 e"
b11 L
b11 ""
b11 )"
b11 C"
b11 t"
b11111111111111111111111111111111 X
b11111111111111111111111111111111 e
b11111111111111111111111111111111 O"
b11 0"
b101 W"
b100000 2
b100000 3"
b100000 L"
b100000 1
b100000 4"
b100000 9"
b100000 Z"
1T
b10 Y
b10 s
b1011101 N
b1011101 z"
0R
b1000 *
b1000 D"
b1000 N"
b100 :"
b11 K
b11 A"
b11 o"
b1111 ;
b1111 b
b1111 ^"
1:
15
17
16
b10000000000010001010000011 /
b10000000000010001010000011 m
b10000000000010001010000011 7"
b10000000000010001010000011 h"
b1000 +
b1000 I"
b1000 K"
b100 )
b100 F"
b100 G"
b100 f"
1!
#4000
0!
b1 ~"
#5000
x&
b1111 [
b1111 V"
1_
0]
bx %
bx j
bx ["
bx u"
bx '
bx k
bx \"
bx v"
b111111110 O
b111111110 }"
bx M
bx v
bx k"
b1000 :"
b110011 0"
b10 /"
b1 ."
b10 W"
b10 Y"
b1 X"
b10 r"
b1 q"
b1111 Y
b1111 s
1R
b111111110 N
b111111110 z"
0T
b0 1
b0 4"
b0 9"
b0 Z"
b1100 *
b1100 D"
b1100 N"
b100000 W
b100000 a
b100000 i
b100000 X
b100000 e
b100000 O"
b11111111111 t
b1100 +
b1100 I"
b1100 K"
b1000 )
b1000 F"
b1000 G"
b1000 f"
b1000001000000100110011 /
b1000001000000100110011 m
b1000001000000100110011 7"
b1000001000000100110011 h"
b100 2
b100 3"
b100 L"
b100 (
b100 5"
b100 i"
b100000 9
b100000 f
b100000 b"
b101 >
b101 1"
b101 Q"
b101 _"
b10 ;
b10 b
b10 ^"
06
18
b11111111111111111111111111111111 F
b11111111111111111111111111111111 #"
b11111111111111111111111111111111 *"
b11111111111111111111111111111111 T"
b11111111111111111111111111111111 l"
1H
1I
1G
1!
#6000
0!
b10 ~"
#7000
b11111111111111111111111111111111 L
b11111111111111111111111111111111 ""
b11111111111111111111111111111111 )"
b11111111111111111111111111111111 C"
b11111111111111111111111111111111 t"
b0 M
b0 v
b0 k"
b100000 t
b0 W
b0 a
b0 i
bx D
bx c
bx &"
bx C
bx g
bx -"
bx P"
b11111111111111111111111111111111 X
b11111111111111111111111111111111 e
b11111111111111111111111111111111 O"
b10000 *
b10000 D"
b10000 N"
b1100 :"
bx K
bx A"
bx o"
b11111111111111111111111111111111 $
b11111111111111111111111111111111 @"
b11111111111111111111111111111111 p"
1-
1,
b101 J
b101 {
b101 S"
b101 j"
b100000 F
b100000 #"
b100000 *"
b100000 T"
b100000 l"
0H
b0 9
b0 f
b0 b"
bx 4
bx $"
bx c"
bx 3
bx +"
bx d"
b1 =
b1 y
b1 `"
b10 <
b10 x
b10 a"
b10 >
b10 1"
b10 Q"
b10 _"
b1111 ;
b1111 b
b1111 ^"
16
08
b1000 2
b1000 3"
b1000 L"
b1000 (
b1000 5"
b1000 i"
b10000 +
b10000 I"
b10000 K"
b1100 )
b1100 F"
b1100 G"
b1100 f"
1!
#8000
0!
b11 ~"
#9000
bx00000000 M
bx00000000 v
bx00000000 k"
b10000 :"
b10100 *
b10100 D"
b10100 N"
b11111111111 t
b10 A
b10 }
b10 ("
b100000 L
b100000 ""
b100000 )"
b100000 C"
b100000 t"
b10100 +
b10100 I"
b10100 K"
b10000 )
b10000 F"
b10000 G"
b10000 f"
b1100 2
b1100 3"
b1100 L"
b1100 (
b1100 5"
b1100 i"
b10 J
b10 {
b10 S"
b10 j"
b11111111111111111111111111111111 F
b11111111111111111111111111111111 #"
b11111111111111111111111111111111 *"
b11111111111111111111111111111111 T"
b11111111111111111111111111111111 l"
bx E
bx u
bx U"
1H
b101 .
b101 z
b101 n"
b101 s"
b0 K
b0 A"
b0 o"
b100000 $
b100000 @"
b100000 p"
1!
#10000
0!
b100 ~"
#11000
b10 A
b10 }
b10 ("
b11111111111111111111111111111111 L
b11111111111111111111111111111111 ""
b11111111111111111111111111111111 )"
b11111111111111111111111111111111 C"
b11111111111111111111111111111111 t"
bx M
bx v
bx k"
b11000 *
b11000 D"
b11000 N"
b10100 :"
b10 .
b10 z
b10 n"
b10 s"
bx00000000 K
bx00000000 A"
bx00000000 o"
b11111111111111111111111111111111 $
b11111111111111111111111111111111 @"
b11111111111111111111111111111111 p"
b10000 2
b10000 3"
b10000 L"
b10000 (
b10000 5"
b10000 i"
b11000 +
b11000 I"
b11000 K"
b10100 )
b10100 F"
b10100 G"
b10100 f"
1!
#12000
b11111111111111111111111111111111 %
b11111111111111111111111111111111 j
b11111111111111111111111111111111 ["
b11111111111111111111111111111111 u"
0!
b101 ~"
#13000
b11000 :"
b11100 *
b11100 D"
b11100 N"
b11100 +
b11100 I"
b11100 K"
b11000 )
b11000 F"
b11000 G"
b11000 f"
b10100 2
b10100 3"
b10100 L"
b10100 (
b10100 5"
b10100 i"
b11111111111111111111111111111111 3
b11111111111111111111111111111111 +"
b11111111111111111111111111111111 d"
bx K
bx A"
bx o"
1!
#14000
0!
b110 ~"
#15000
b100000 *
b100000 D"
b100000 N"
b11100 :"
b11000 2
b11000 3"
b11000 L"
b11000 (
b11000 5"
b11000 i"
b100000 +
b100000 I"
b100000 K"
b11100 )
b11100 F"
b11100 G"
b11100 f"
1!
#16000
0!
b111 ~"
#17000
b100000 :"
b100100 *
b100100 D"
b100100 N"
b100100 +
b100100 I"
b100100 K"
b100000 )
b100000 F"
b100000 G"
b100000 f"
b11100 2
b11100 3"
b11100 L"
b11100 (
b11100 5"
b11100 i"
1!
#18000
0!
b1000 ~"
#19000
b101000 *
b101000 D"
b101000 N"
b100100 :"
b100000 2
b100000 3"
b100000 L"
b100000 (
b100000 5"
b100000 i"
b101000 +
b101000 I"
b101000 K"
b100100 )
b100100 F"
b100100 G"
b100100 f"
1!
#20000
0!
b1001 ~"
#21000
b101000 :"
b101100 *
b101100 D"
b101100 N"
b101100 +
b101100 I"
b101100 K"
b101000 )
b101000 F"
b101000 G"
b101000 f"
b100100 2
b100100 3"
b100100 L"
b100100 (
b100100 5"
b100100 i"
1!
#22000
0!
b1010 ~"
#23000
b110000 *
b110000 D"
b110000 N"
b101100 :"
b101000 2
b101000 3"
b101000 L"
b101000 (
b101000 5"
b101000 i"
b110000 +
b110000 I"
b110000 K"
b101100 )
b101100 F"
b101100 G"
b101100 f"
1!
#24000
0!
b1011 ~"
#25000
b1000000000010001010000011 0
b1000000000010001010000011 >"
b1000000000010001010000011 e"
b110000 :"
b110100 *
b110100 D"
b110100 N"
b110100 +
b110100 I"
b110100 K"
b110000 )
b110000 F"
b110000 G"
b110000 f"
b101100 2
b101100 3"
b101100 L"
b101100 (
b101100 5"
b101100 i"
1!
#26000
0!
b1100 ~"
#27000
b10 [
b10 V"
0_
1]
bx %
bx j
bx ["
bx u"
b0 '
b0 k
b0 \"
b0 v"
b1011101 O
b1011101 }"
b10001000000010010000100011 0
b10001000000010010000100011 >"
b10001000000010010000100011 e"
b11 0"
b10000 /"
b0 ."
b101 W"
b10000 Y"
b0 X"
b10000 r"
b0 q"
b10000 1
b10000 4"
b10000 9"
b10000 Z"
1T
b10 Y
b10 s
b1011101 N
b1011101 z"
0R
b111000 *
b111000 D"
b111000 N"
b110100 :"
b1000000000010001010000011 /
b1000000000010001010000011 m
b1000000000010001010000011 7"
b1000000000010001010000011 h"
b1000000 2
b1000000 3"
b1000000 L"
b110000 (
b110000 5"
b110000 i"
b111000 +
b111000 I"
b111000 K"
b110100 )
b110100 F"
b110100 G"
b110100 f"
1!
#28000
0!
b1101 ~"
#29000
0&
0`
0^
1_
0]
b0 0
b0 >"
b0 e"
b11111111111111111111111111111111 %
b11111111111111111111111111111111 j
b11111111111111111111111111111111 ["
b11111111111111111111111111111111 u"
b1010010 O
b1010010 }"
b111000 :"
b100011 0"
b10 /"
b1000 W"
b10 Y"
b10 r"
0S
1R
0P
b1010010 N
b1010010 z"
0T
b101000 1
b101000 4"
b101000 9"
b101000 Z"
b111100 *
b111100 D"
b111100 N"
b10000 W
b10000 a
b10000 i
b0 D
b0 c
b0 &"
b0 A
b0 }
b0 ("
b10000 X
b10000 e
b10000 O"
b111100 +
b111100 I"
b111100 K"
b111000 )
b111000 F"
b111000 G"
b111000 f"
b10001000000010010000100011 /
b10001000000010010000100011 m
b10001000000010010000100011 7"
b10001000000010010000100011 h"
b1011100 2
b1011100 3"
b1011100 L"
b110100 (
b110100 5"
b110100 i"
b10000 9
b10000 f
b10000 b"
b0 4
b0 $"
b0 c"
bx 3
bx +"
bx d"
b0 =
b0 y
b0 `"
b10000 <
b10000 x
b10000 a"
b101 >
b101 1"
b101 Q"
b101 _"
b10 ;
b10 b
b10 ^"
06
18
1!
#30000
0!
b1110 ~"
#31000
1&
b1111 [
b1111 V"
1`
1^
b1 M
b1 v
b1 k"
b101000 X
b101000 e
b101000 O"
b0 %
b0 j
b0 ["
b0 u"
b111111110 O
b111111110 }"
b10000 t
b101000 W
b101000 a
b101000 i
b11111111111111111111111111111111 C
b11111111111111111111111111111111 g
b11111111111111111111111111111111 -"
b11111111111111111111111111111111 P"
b0 0"
b0 /"
b0 W"
b0 Y"
b0 r"
b0 1
b0 4"
b0 9"
b0 Z"
b1111 Y
b1111 s
1S
b111111110 N
b111111110 z"
1P
b1000000 *
b1000000 D"
b1000000 N"
b111100 :"
b101 J
b101 {
b101 S"
b101 j"
b10000 F
b10000 #"
b10000 *"
b10000 T"
b10000 l"
0H
b101000 9
b101000 f
b101000 b"
b11111111111111111111111111111111 3
b11111111111111111111111111111111 +"
b11111111111111111111111111111111 d"
b10 <
b10 x
b10 a"
b1000 >
b1000 1"
b1000 Q"
b1000 _"
05
07
16
08
b0 /
b0 m
b0 7"
b0 h"
b111000 2
b111000 3"
b111000 L"
b111000 (
b111000 5"
b111000 i"
b1000000 +
b1000000 I"
b1000000 K"
b111100 )
b111100 F"
b111100 G"
b111100 f"
1!
#32000
0!
b1111 ~"
#33000
b0 M
b0 v
b0 k"
b1000000 :"
b1000100 *
b1000100 D"
b1000100 N"
b0 W
b0 a
b0 i
b11111111111111111111111111111111 X
b11111111111111111111111111111111 e
b11111111111111111111111111111111 O"
b101000 t
b0 C
b0 g
b0 -"
b0 P"
b10000 L
b10000 ""
b10000 )"
b10000 C"
b10000 t"
b1000100 +
b1000100 I"
b1000100 K"
b1000000 )
b1000000 F"
b1000000 G"
b1000000 f"
b111100 2
b111100 3"
b111100 L"
b111100 (
b111100 5"
b111100 i"
b0 9
b0 f
b0 b"
b0 3
b0 +"
b0 d"
b0 <
b0 x
b0 a"
b0 >
b0 1"
b0 Q"
b0 _"
b1111 ;
b1111 b
b1111 ^"
15
17
b1000 J
b1000 {
b1000 S"
b1000 j"
b101000 F
b101000 #"
b101000 *"
b101000 T"
b101000 l"
b11111111111111111111111111111111 E
b11111111111111111111111111111111 u
b11111111111111111111111111111111 U"
1H
0I
0G
b101 .
b101 z
b101 n"
b101 s"
b1 K
b1 A"
b1 o"
b10000 $
b10000 @"
b10000 p"
1!
#34000
0!
b10000 ~"
#35000
b0 L
b0 ""
b0 )"
b0 C"
b0 t"
bx M
bx v
bx k"
b11111111111 t
b1001000 *
b1001000 D"
b1001000 N"
b1000100 :"
b1000 .
b1000 z
b1000 n"
b1000 s"
b0 K
b0 A"
b0 o"
b101000 $
b101000 @"
b101000 p"
0-
0,
b0 J
b0 {
b0 S"
b0 j"
b11111111111111111111111111111111 F
b11111111111111111111111111111111 #"
b11111111111111111111111111111111 *"
b11111111111111111111111111111111 T"
b11111111111111111111111111111111 l"
b0 E
b0 u
b0 U"
1I
1G
b1000000 2
b1000000 3"
b1000000 L"
b1000000 (
b1000000 5"
b1000000 i"
b1001000 +
b1001000 I"
b1001000 K"
b1000100 )
b1000100 F"
b1000100 G"
b1000100 f"
1!
#36000
0!
b10001 ~"
#37000
b1001000 :"
b1001100 *
b1001100 D"
b1001100 N"
bx00000000 M
bx00000000 v
bx00000000 k"
b11111111111111111111111111111111 L
b11111111111111111111111111111111 ""
b11111111111111111111111111111111 )"
b11111111111111111111111111111111 C"
b11111111111111111111111111111111 t"
b1001100 +
b1001100 I"
b1001100 K"
b1001000 )
b1001000 F"
b1001000 G"
b1001000 f"
b1000100 2
b1000100 3"
b1000100 L"
b1000100 (
b1000100 5"
b1000100 i"
b0 .
b0 z
b0 n"
b0 s"
bx K
bx A"
bx o"
b11111111111111111111111111111111 $
b11111111111111111111111111111111 @"
b11111111111111111111111111111111 p"
1-
1,
1!
#38000
0!
b10010 ~"
#39000
b1010000 *
b1010000 D"
b1010000 N"
b1001100 :"
bx00000000 K
bx00000000 A"
bx00000000 o"
b1001000 2
b1001000 3"
b1001000 L"
b1001000 (
b1001000 5"
b1001000 i"
b1010000 +
b1010000 I"
b1010000 K"
b1001100 )
b1001100 F"
b1001100 G"
b1001100 f"
1!
#40000
0!
b10011 ~"
#41000
bx 0
bx >"
bx e"
b1010000 :"
b1010100 *
b1010100 D"
b1010100 N"
b1010100 +
b1010100 I"
b1010100 K"
b1010000 )
b1010000 F"
b1010000 G"
b1010000 f"
b1001100 2
b1001100 3"
b1001100 L"
b1001100 (
b1001100 5"
b1001100 i"
1!
#42000
0!
b10100 ~"
